{
	"id": "7f8b9b30-da9a-41dd-aa48-235c79263fbe",
	"name": "olimp_backend_env",
	"values": [
		{
			"key": "HOST",
			"value": "http://localhost:3000",
			"enabled": true
		},
		{
			"key": "LOGIN",
			"value": "user01",
			"enabled": true
		},
		{
			"key": "PASSWORD",
			"value": "123qwe",
			"enabled": true
		},
		{
			"key": "TOKEN",
			"value": "token here",
			"enabled": true
		},
		{
			"key": "UPLOAD_ID",
			"value": "upload id here",
			"enabled": true
		}
	],
	"_postman_variable_scope": "environment",
	"_postman_exported_at": "2021-03-09T07:19:14.126Z",
	"_postman_exported_using": "Postman/7.36.5"
}